<?xml version="1.0" encoding="UTF-8" standalone="no"?>
<!-- Created with Inkscape (http://www.inkscape.org/) -->

<svg
   xmlns:dc="http://purl.org/dc/elements/1.1/"
   xmlns:cc="http://creativecommons.org/ns#"
   xmlns:rdf="http://www.w3.org/1999/02/22-rdf-syntax-ns#"
   xmlns:svg="http://www.w3.org/2000/svg"
   xmlns="http://www.w3.org/2000/svg"
   xmlns:sodipodi="http://sodipodi.sourceforge.net/DTD/sodipodi-0.dtd"
   xmlns:inkscape="http://www.inkscape.org/namespaces/inkscape"
   width="211.19"
   height="211.19"
   id="svg2"
   version="1.1"
   inkscape:version="0.48.3.1 r9886"
   sodipodi:docname="state-broken.svg">
  <defs
     id="defs4" />
  <sodipodi:namedview
     id="base"
     pagecolor="#ffffff"
     bordercolor="#666666"
     borderopacity="1.0"
     inkscape:pageopacity="0.0"
     inkscape:pageshadow="2"
     inkscape:zoom="1.979899"
     inkscape:cx="62.053773"
     inkscape:cy="40.925465"
     inkscape:document-units="px"
     inkscape:current-layer="layer1"
     showgrid="false"
     fit-margin-top="0"
     fit-margin-left="0"
     fit-margin-right="0"
     fit-margin-bottom="0"
     inkscape:window-width="1920"
     inkscape:window-height="998"
     inkscape:window-x="0"
     inkscape:window-y="24"
     inkscape:window-maximized="1"
     inkscape:object-nodes="true"
     inkscape:object-paths="false"
     inkscape:snap-bbox="false"
     inkscape:snap-object-midpoints="true" />
  <metadata
     id="metadata7">
    <rdf:RDF>
      <cc:Work
         rdf:about="">
        <dc:format>image/svg+xml</dc:format>
        <dc:type
           rdf:resource="http://purl.org/dc/dcmitype/StillImage" />
        <dc:title />
      </cc:Work>
    </rdf:RDF>
  </metadata>
  <g
     inkscape:label="Ebene 1"
     inkscape:groupmode="layer"
     id="layer1"
     transform="translate(-141.65991,-89.235822)">
    <path
       style="color:#000000;fill:#bfbfbf;fill-opacity:1;fill-rule:nonzero;stroke:#000000;stroke-width:8;stroke-miterlimit:4;stroke-opacity:1;stroke-dasharray:none;stroke-dashoffset:0;marker:none;visibility:visible;display:inline;overflow:visible;enable-background:accumulate"
       d="m 179.00366,139.17457 c -18.46761,0 -33.34375,14.84489 -33.34375,33.3125 l 0,44.6875 c 0,18.4676 14.87614,33.3125 33.34375,33.3125 l 11.65625,0 -13.5,-38.65625 -2.21875,-6.3125 5,-4.4375 42.03125,-37.625 -13.5,-24.28125 z m 78.60772,0 11.96875,21.5625 3.875,6.96875 -5.9375,5.34375 -43.03125,38.46875 13.625,38.96875 77.39228,0 c 18.46761,0 33.34375,-14.8449 33.34375,-33.3125 l 0,-44.6875 c 0,-18.46761 -14.87614,-33.3125 -33.34375,-33.3125 z"
       id="rect2985"
       inkscape:connector-curvature="0"
       sodipodi:nodetypes="ssssccccccsccccccssssc" />
    <path
       style="fill:#ff5052;fill-opacity:1;stroke:#a02203;stroke-width:8.5554018;stroke-miterlimit:4;stroke-opacity:1;stroke-dasharray:none"
       d="m 316.91761,179.10356 -26.27788,26.27788 -26.27787,-26.27788 -26.27788,26.27788 26.27788,26.27787 -26.27788,26.27788 26.27788,26.27787 26.27787,-26.27787 26.27788,26.27787 26.27787,-26.27787 -26.27787,-26.27788 26.27787,-26.27787 -26.27787,-26.27788 z"
       id="rect3002"
       inkscape:connector-curvature="0" />
  </g>
</svg>
