<?xml version="1.0" encoding="UTF-8" standalone="no"?>
<!-- Created with Inkscape (http://www.inkscape.org/) -->

<svg
   xmlns:dc="http://purl.org/dc/elements/1.1/"
   xmlns:cc="http://creativecommons.org/ns#"
   xmlns:rdf="http://www.w3.org/1999/02/22-rdf-syntax-ns#"
   xmlns:svg="http://www.w3.org/2000/svg"
   xmlns="http://www.w3.org/2000/svg"
   xmlns:sodipodi="http://sodipodi.sourceforge.net/DTD/sodipodi-0.dtd"
   xmlns:inkscape="http://www.inkscape.org/namespaces/inkscape"
   height="32"
   id="svg1"
   inkscape:version="0.92.3 (2405546, 2018-03-11)"
   sodipodi:docname="heart.svg"
   sodipodi:version="0.32"
   width="32"
   version="1.1">
  <metadata
     id="metadata3759">
    <rdf:RDF>
      <cc:Work
         rdf:about="">
        <dc:title>Heart Left-Highlight</dc:title>
        <dc:description>This is a normal valentines day heart.</dc:description>
        <dc:subject>
          <rdf:Bag>
            <rdf:li>holiday</rdf:li>
            <rdf:li>valentines</rdf:li>
            <rdf:li />
            <rdf:li>valentine</rdf:li>
            <rdf:li>hash(0x8a091c0)</rdf:li>
            <rdf:li>hash(0x8a0916c)</rdf:li>
            <rdf:li>signs_and_symbols</rdf:li>
            <rdf:li>hash(0x8a091f0)</rdf:li>
            <rdf:li>day</rdf:li>
          </rdf:Bag>
        </dc:subject>
        <dc:publisher>
          <cc:Agent
             rdf:about="http://www.openclipart.org">
            <dc:title>Jon Phillips</dc:title>
          </cc:Agent>
        </dc:publisher>
        <dc:creator>
          <cc:Agent>
            <dc:title>Jon Phillips</dc:title>
          </cc:Agent>
        </dc:creator>
        <dc:rights>
          <cc:Agent>
            <dc:title>Jon Phillips</dc:title>
          </cc:Agent>
        </dc:rights>
        <dc:date />
        <dc:format>image/svg+xml</dc:format>
        <dc:type
           rdf:resource="http://purl.org/dc/dcmitype/StillImage" />
        <cc:license
           rdf:resource="http://web.resource.org/cc/PublicDomain" />
        <dc:language>en</dc:language>
      </cc:Work>
      <cc:License
         rdf:about="http://web.resource.org/cc/PublicDomain">
        <cc:permits
           rdf:resource="http://web.resource.org/cc/Reproduction" />
        <cc:permits
           rdf:resource="http://web.resource.org/cc/Distribution" />
        <cc:permits
           rdf:resource="http://web.resource.org/cc/DerivativeWorks" />
      </cc:License>
    </rdf:RDF>
  </metadata>
  <defs
     id="defs3" />
  <sodipodi:namedview
     bordercolor="#666666"
     borderopacity="1.0"
     id="base"
     inkscape:current-layer="layer1"
     inkscape:cx="26.075948"
     inkscape:cy="22.464565"
     inkscape:document-units="px"
     inkscape:guide-bbox="true"
     inkscape:pageopacity="0.0"
     inkscape:pageshadow="2"
     inkscape:window-height="998"
     inkscape:window-width="1920"
     inkscape:window-x="0"
     inkscape:window-y="0"
     inkscape:zoom="15.839192"
     pagecolor="#ffffff"
     showguides="true"
     showgrid="false"
     inkscape:window-maximized="1"
     units="px"
     inkscape:snap-page="true"
     inkscape:snap-bbox="true"
     inkscape:bbox-nodes="true" />
  <g
     id="layer1"
     inkscape:groupmode="layer"
     inkscape:label="Layer 1"
     transform="translate(-134.06575,-643.11033)">
    <g
       id="g133"
       transform="matrix(0.06725163,0,0,0.06725163,125.04961,628.81662)">
      <path
         inkscape:connector-curvature="0"
         style="fill:#e60000;fill-opacity:1;stroke:#000000;stroke-width:18.70000076;stroke-miterlimit:4;stroke-opacity:1"
         sodipodi:nodetypes="ccccccc"
         id="path7"
         d="m 263.4157,235.14588 c -66.24,0 -119.99995,53.75999 -119.99995,120 0,134.75551 135.93315,170.0873 228.56245,303.30804 87.57424,-132.40336 228.5625,-172.8546 228.5625,-303.30804 0,-66.24 -53.7599,-120.00001 -120,-120 -48.0479,0 -89.4016,28.37043 -108.5625,69.1875 -19.1608,-40.81708 -60.5145,-69.18751 -108.5625,-69.1875 z" />
      <path
         inkscape:connector-curvature="0"
         style="fill:#e6e6e6;fill-opacity:0.64556963;stroke:none;stroke-width:18.70000076;stroke-miterlimit:4;stroke-opacity:1"
         sodipodi:nodetypes="ccccccc"
         id="path220"
         d="m 265,253.59375 c -57.95967,0 -105,47.04032 -105,105 C 160,476.50415 278.91857,507.43251 359.96875,624 366.52868,614.08205 220,478.47309 220,378.59375 c 0,-57.95968 47.04033,-105 105,-105 0.50453,0 0.99718,0.0554 1.5,0.0625 -17.27564,-12.58339 -38.49443,-20.06251 -61.5,-20.0625 z" />
    </g>
  </g>
</svg>
