<?xml version="1.0" encoding="UTF-8" standalone="no"?>
<!-- Created with Inkscape (http://www.inkscape.org/) -->

<svg
   xmlns:dc="http://purl.org/dc/elements/1.1/"
   xmlns:cc="http://creativecommons.org/ns#"
   xmlns:rdf="http://www.w3.org/1999/02/22-rdf-syntax-ns#"
   xmlns:svg="http://www.w3.org/2000/svg"
   xmlns="http://www.w3.org/2000/svg"
   xmlns:xlink="http://www.w3.org/1999/xlink"
   xmlns:sodipodi="http://sodipodi.sourceforge.net/DTD/sodipodi-0.dtd"
   xmlns:inkscape="http://www.inkscape.org/namespaces/inkscape"
   height="617.51654"
   id="svg2"
   inkscape:export-filename="/home/petri/Desktop/SVG Kuvia/Omat/joystick_br.png"
   inkscape:export-xdpi="64.000000"
   inkscape:export-ydpi="64.000000"
   inkscape:version="0.48.3.1 r9886"
   sodipodi:docname="retro_joystick2.svg"
   sodipodi:version="0.32"
   width="633.69611"
   version="1.1">
  <metadata
     id="metadata3">
    <rdf:RDF>
      <cc:Work
         rdf:about="">
        <dc:title>Joystick black red</dc:title>
        <dc:description>Black joystick</dc:description>
        <dc:subject>
          <rdf:Bag>
            <rdf:li />
            <rdf:li>11</rdf:li>
            <rdf:li>toy</rdf:li>
            <rdf:li>computer</rdf:li>
          </rdf:Bag>
        </dc:subject>
        <dc:publisher>
          <cc:Agent
             rdf:about="http://www.openclipart.org">
            <dc:title>Petri Lummemaki</dc:title>
          </cc:Agent>
        </dc:publisher>
        <dc:creator>
          <cc:Agent>
            <dc:title>Petri Lummemaki</dc:title>
          </cc:Agent>
        </dc:creator>
        <dc:rights>
          <cc:Agent>
            <dc:title>Petri Lummemaki</dc:title>
          </cc:Agent>
        </dc:rights>
        <dc:date />
        <dc:format>image/svg+xml</dc:format>
        <dc:type
           rdf:resource="http://purl.org/dc/dcmitype/StillImage" />
        <cc:license
           rdf:resource="http://web.resource.org/cc/PublicDomain" />
        <dc:language>en</dc:language>
      </cc:Work>
      <cc:License
         rdf:about="http://web.resource.org/cc/PublicDomain">
        <cc:permits
           rdf:resource="http://web.resource.org/cc/Reproduction" />
        <cc:permits
           rdf:resource="http://web.resource.org/cc/Distribution" />
        <cc:permits
           rdf:resource="http://web.resource.org/cc/DerivativeWorks" />
      </cc:License>
    </rdf:RDF>
  </metadata>
  <defs
     id="defs3">
    <linearGradient
       gradientTransform="matrix(1.853194,0,0,0.539609,-642.6514,27.32669)"
       gradientUnits="userSpaceOnUse"
       id="linearGradient3949"
       inkscape:collect="always"
       spreadMethod="reflect"
       x1="382.15924"
       x2="453.20099"
       xlink:href="#linearGradient3151"
       y1="737.88641"
       y2="637.74811" />
    <linearGradient
       id="linearGradient3151">
      <stop
         id="stop3153"
         offset="0.0000000"
         style="stop-color:#1a1a1a;stop-opacity:1.0000000;" />
      <stop
         id="stop3155"
         offset="0.35294119"
         style="stop-color:#7c7c7c;stop-opacity:1.0000000;" />
      <stop
         id="stop3157"
         offset="1.0000000"
         style="stop-color:#15140f;stop-opacity:1.0000000;" />
    </linearGradient>
    <linearGradient
       gradientTransform="matrix(1.019322,0,0,0.445294,16.43858,-169.4553)"
       gradientUnits="userSpaceOnUse"
       id="linearGradient3137"
       inkscape:collect="always"
       spreadMethod="pad"
       x1="500.58514"
       x2="499.48276"
       xlink:href="#linearGradient3151"
       y1="748.56146"
       y2="638.9837" />
    <linearGradient
       id="linearGradient2199">
      <stop
         id="stop2201"
         offset="0.0000000"
         style="stop-color:#9f6f6f;stop-opacity:1.0000000;" />
      <stop
         id="stop2203"
         offset="0.0000000"
         style="stop-color:#2c2c2c;stop-opacity:1.0000000;" />
      <stop
         id="stop2205"
         offset="1.0000000"
         style="stop-color:#342c2c;stop-opacity:1.0000000;" />
      <stop
         id="stop2207"
         offset="1.0000000"
         style="stop-color:#b8b079;stop-opacity:1.0000000;" />
      <stop
         id="stop2209"
         offset="1.0000000"
         style="stop-color:#d5cd99;stop-opacity:1.0000000;" />
      <stop
         id="stop2211"
         offset="1.0000000"
         style="stop-color:#e3dca9;stop-opacity:1.0000000;" />
      <stop
         id="stop2213"
         offset="1.0000000"
         style="stop-color:#eae3b1;stop-opacity:1.0000000;" />
      <stop
         id="stop2215"
         offset="1.0000000"
         style="stop-color:#f2ebb9;stop-opacity:1.0000000;" />
    </linearGradient>
    <linearGradient
       id="linearGradient7019">
      <stop
         id="stop7021"
         offset="0.0000000"
         style="stop-color:#343434;stop-opacity:1.0000000;" />
      <stop
         id="stop7023"
         offset="0.40000001"
         style="stop-color:#3b3b3b;stop-opacity:1.0000000;" />
      <stop
         id="stop7025"
         offset="1.0000000"
         style="stop-color:#3f3f3f;stop-opacity:1.0000000;" />
    </linearGradient>
    <linearGradient
       id="linearGradient6956"
       inkscape:collect="always">
      <stop
         id="stop6958"
         offset="0"
         style="stop-color:#ffffff;stop-opacity:1;" />
      <stop
         id="stop6960"
         offset="1"
         style="stop-color:#ffffff;stop-opacity:0;" />
    </linearGradient>
    <linearGradient
       id="linearGradient6869">
      <stop
         id="stop6871"
         offset="0.0000000"
         style="stop-color:#ffffff;stop-opacity:1.0000000;" />
      <stop
         id="stop6873"
         offset="1.0000000"
         style="stop-color:#000000;stop-opacity:1.0000000;" />
      <stop
         id="stop6875"
         offset="1.0000000"
         style="stop-color:#ffffff;stop-opacity:0.0000000;" />
    </linearGradient>
    <linearGradient
       id="linearGradient6853">
      <stop
         id="stop6855"
         offset="0.0000000"
         style="stop-color:#ffffff;stop-opacity:1.0000000;" />
      <stop
         id="stop6857"
         offset="0.13333334"
         style="stop-color:#ffffff;stop-opacity:1.0000000;" />
      <stop
         id="stop6859"
         offset="1.0000000"
         style="stop-color:#ffffff;stop-opacity:0.0000000;" />
    </linearGradient>
    <linearGradient
       id="linearGradient6829">
      <stop
         id="stop6831"
         offset="0.0000000"
         style="stop-color:#ff0018;stop-opacity:1.0000000;" />
      <stop
         id="stop6833"
         offset="1.0000000"
         style="stop-color:#740202;stop-opacity:1.0000000;" />
    </linearGradient>
    <linearGradient
       id="linearGradient5193">
      <stop
         id="stop5195"
         offset="0.0000000"
         style="stop-color:#707070;stop-opacity:1.0000000;" />
      <stop
         id="stop5197"
         offset="0.0000000"
         style="stop-color:#3b3b3b;stop-opacity:1.0000000;" />
      <stop
         id="stop5199"
         offset="1.0000000"
         style="stop-color:#676363;stop-opacity:1.0000000;" />
      <stop
         id="stop5201"
         offset="1.0000000"
         style="stop-color:#b8b079;stop-opacity:1.0000000;" />
      <stop
         id="stop5203"
         offset="1.0000000"
         style="stop-color:#d5cd99;stop-opacity:1.0000000;" />
      <stop
         id="stop5205"
         offset="1.0000000"
         style="stop-color:#e3dca9;stop-opacity:1.0000000;" />
      <stop
         id="stop5207"
         offset="1.0000000"
         style="stop-color:#eae3b1;stop-opacity:1.0000000;" />
      <stop
         id="stop5209"
         offset="1.0000000"
         style="stop-color:#f2ebb9;stop-opacity:1.0000000;" />
    </linearGradient>
    <linearGradient
       id="linearGradient2879">
      <stop
         id="stop2881"
         offset="0.0000000"
         style="stop-color:#747171;stop-opacity:1.0000000;" />
      <stop
         id="stop2887"
         offset="0.40000001"
         style="stop-color:#030300;stop-opacity:1.0000000;" />
      <stop
         id="stop2883"
         offset="1.0000000"
         style="stop-color:#47453b;stop-opacity:1.0000000;" />
    </linearGradient>
    <linearGradient
       id="linearGradient2099"
       inkscape:collect="always">
      <stop
         id="stop2101"
         offset="0"
         style="stop-color:#000000;stop-opacity:1;" />
      <stop
         id="stop2103"
         offset="1"
         style="stop-color:#000000;stop-opacity:0;" />
    </linearGradient>
    <linearGradient
       id="linearGradient4244">
      <stop
         id="stop4246"
         offset="0.0000000"
         style="stop-color:#ff9e9e;stop-opacity:1.0000000;" />
      <stop
         id="stop4254"
         offset="0.30000001"
         style="stop-color:#ed0000;stop-opacity:1.0000000;" />
      <stop
         id="stop4248"
         offset="1.0000000"
         style="stop-color:#5f3232;stop-opacity:1.0000000;" />
    </linearGradient>
    <linearGradient
       id="linearGradient4220">
      <stop
         id="stop4222"
         offset="0"
         style="stop-color:#424032;stop-opacity:1;" />
      <stop
         id="stop4228"
         offset="0.40716052"
         style="stop-color:#fffffa;stop-opacity:1.0000000;" />
      <stop
         id="stop4230"
         offset="0.71851856"
         style="stop-color:#74746f;stop-opacity:1.0000000;" />
      <stop
         id="stop4232"
         offset="1.0000000"
         style="stop-color:#f5f5e7;stop-opacity:1.0000000;" />
      <stop
         id="stop4224"
         offset="1.0000000"
         style="stop-color:#0f0f0d;stop-opacity:0.0000000;" />
    </linearGradient>
    <linearGradient
       id="linearGradient3432">
      <stop
         id="stop3434"
         offset="0.0000000"
         style="stop-color:#a0a0a0;stop-opacity:1.0000000;" />
      <stop
         id="stop4240"
         offset="0.0000000"
         style="stop-color:#564e4e;stop-opacity:1.0000000;" />
      <stop
         id="stop3436"
         offset="1.0000000"
         style="stop-color:#5d5d5d;stop-opacity:1.0000000;" />
      <stop
         id="stop3440"
         offset="1.0000000"
         style="stop-color:#595959;stop-opacity:1.0000000;" />
      <stop
         id="stop4234"
         offset="1.0000000"
         style="stop-color:#454545;stop-opacity:1.0000000;" />
      <stop
         id="stop4236"
         offset="1.0000000"
         style="stop-color:#9e9d99;stop-opacity:1.0000000;" />
      <stop
         id="stop4238"
         offset="1.0000000"
         style="stop-color:#1e1d1c;stop-opacity:1.0000000;" />
      <stop
         id="stop3438"
         offset="1.0000000"
         style="stop-color:#777771;stop-opacity:1.0000000;" />
    </linearGradient>
    <linearGradient
       id="linearGradient3424">
      <stop
         id="stop3426"
         offset="0.0000000"
         style="stop-color:#ada988;stop-opacity:1.0000000;" />
      <stop
         id="stop3428"
         offset="1.0000000"
         style="stop-color:#594f0c;stop-opacity:0.49803922;" />
      <stop
         id="stop3430"
         offset="1"
         style="stop-color:#ada884;stop-opacity:0;" />
    </linearGradient>
    <linearGradient
       id="linearGradient3412">
      <stop
         id="stop3414"
         offset="0.0000000"
         style="stop-color:#ada988;stop-opacity:1.0000000;" />
      <stop
         id="stop3422"
         offset="1.0000000"
         style="stop-color:#594f0c;stop-opacity:0.49803922;" />
      <stop
         id="stop3416"
         offset="1"
         style="stop-color:#ada884;stop-opacity:0;" />
    </linearGradient>
    <linearGradient
       gradientTransform="matrix(1.318162,0,0,0.758632,473.2151,-198.8161)"
       gradientUnits="userSpaceOnUse"
       id="linearGradient3418"
       inkscape:collect="always"
       spreadMethod="pad"
       x1="348.62054"
       x2="287.36374"
       xlink:href="#linearGradient3432"
       y1="618.14343"
       y2="558.94849" />
    <linearGradient
       gradientTransform="matrix(0.627922,0,0,1.592555,0.621822,11.19279)"
       gradientUnits="userSpaceOnUse"
       id="linearGradient4226"
       inkscape:collect="always"
       x1="623.29089"
       x2="713.45251"
       xlink:href="#linearGradient4220"
       y1="233.4352"
       y2="233.4352" />
    <radialGradient
       cx="402.37842"
       cy="239.09691"
       fx="401.32013"
       fy="240.22166"
       gradientTransform="scale(1.025978,0.974679)"
       gradientUnits="userSpaceOnUse"
       id="radialGradient4252"
       inkscape:collect="always"
       r="71.975067"
       xlink:href="#linearGradient4244" />
    <linearGradient
       gradientTransform="matrix(1.538213,0,0,0.939371,-109.4525,-116.0941)"
       gradientUnits="userSpaceOnUse"
       id="linearGradient4284"
       inkscape:collect="always"
       spreadMethod="pad"
       x1="348.62054"
       x2="287.36374"
       xlink:href="#linearGradient3432"
       y1="618.14343"
       y2="558.94849" />
    <linearGradient
       gradientTransform="scale(0.868609,1.151265)"
       gradientUnits="userSpaceOnUse"
       id="linearGradient2113"
       inkscape:collect="always"
       x1="486.41455"
       x2="486.41476"
       xlink:href="#linearGradient2099"
       y1="276.33328"
       y2="303.0112" />
    <linearGradient
       gradientTransform="scale(1.235368,0.809475)"
       gradientUnits="userSpaceOnUse"
       id="linearGradient2885"
       inkscape:collect="always"
       x1="258.02023"
       x2="417.65616"
       xlink:href="#linearGradient2879"
       y1="641.9787"
       y2="641.9787" />
    <linearGradient
       gradientTransform="matrix(1.266144,0,0,0.789799,228.5092,-529.5197)"
       gradientUnits="userSpaceOnUse"
       id="linearGradient4423"
       inkscape:collect="always"
       x1="180.17577"
       x2="497.03568"
       xlink:href="#linearGradient2879"
       y1="714.59155"
       y2="714.59155" />
    <linearGradient
       gradientTransform="matrix(1.221679,0,0,0.818545,233.1566,-530.6816)"
       gradientUnits="userSpaceOnUse"
       id="linearGradient5191"
       inkscape:collect="always"
       x1="91.493225"
       x2="544.29858"
       xlink:href="#linearGradient5193"
       y1="670.74152"
       y2="670.74152" />
    <linearGradient
       gradientTransform="matrix(1.221679,0,0,0.818545,12.99564,40.96725)"
       gradientUnits="userSpaceOnUse"
       id="linearGradient5213"
       inkscape:collect="always"
       x1="91.493225"
       x2="544.29858"
       xlink:href="#linearGradient2879"
       y1="670.74152"
       y2="670.74152" />
    <linearGradient
       gradientTransform="scale(1.235368,0.809475)"
       gradientUnits="userSpaceOnUse"
       id="linearGradient5981"
       inkscape:collect="always"
       x1="258.02023"
       x2="417.65616"
       xlink:href="#linearGradient2879"
       y1="641.9787"
       y2="641.9787" />
    <linearGradient
       gradientTransform="matrix(1.538213,0,0,0.939371,-109.4525,-116.0941)"
       gradientUnits="userSpaceOnUse"
       id="linearGradient5983"
       inkscape:collect="always"
       spreadMethod="pad"
       x1="348.62054"
       x2="287.36374"
       xlink:href="#linearGradient3432"
       y1="618.14343"
       y2="558.94849" />
    <linearGradient
       gradientTransform="matrix(0.627922,0,0,1.592555,0.621822,11.19279)"
       gradientUnits="userSpaceOnUse"
       id="linearGradient5985"
       inkscape:collect="always"
       x1="623.29089"
       x2="713.45251"
       xlink:href="#linearGradient4220"
       y1="233.4352"
       y2="233.4352" />
    <linearGradient
       gradientTransform="scale(0.868609,1.151265)"
       gradientUnits="userSpaceOnUse"
       id="linearGradient5987"
       inkscape:collect="always"
       x1="486.41455"
       x2="486.41476"
       xlink:href="#linearGradient2099"
       y1="276.33328"
       y2="303.0112" />
    <radialGradient
       cx="402.37842"
       cy="239.09691"
       fx="401.32013"
       fy="240.22166"
       gradientTransform="scale(1.025978,0.974679)"
       gradientUnits="userSpaceOnUse"
       id="radialGradient5989"
       inkscape:collect="always"
       r="71.975067"
       xlink:href="#linearGradient4244" />
    <linearGradient
       gradientTransform="matrix(1.318162,0,0,0.758632,473.2151,-198.8161)"
       gradientUnits="userSpaceOnUse"
       id="linearGradient6001"
       inkscape:collect="always"
       spreadMethod="pad"
       x1="348.62054"
       x2="287.36374"
       xlink:href="#linearGradient3432"
       y1="618.14343"
       y2="558.94849" />
    <linearGradient
       gradientTransform="matrix(1.318162,0,0,0.758632,696.6778,-287.5439)"
       gradientUnits="userSpaceOnUse"
       id="linearGradient6007"
       inkscape:collect="always"
       spreadMethod="pad"
       x1="348.62054"
       x2="287.36374"
       xlink:href="#linearGradient3432"
       y1="618.14343"
       y2="558.94849" />
    <linearGradient
       gradientTransform="matrix(0.868609,0,0,1.151265,696.6778,-290.8301)"
       gradientUnits="userSpaceOnUse"
       id="linearGradient6011"
       inkscape:collect="always"
       x1="486.41455"
       x2="486.41476"
       xlink:href="#linearGradient2099"
       y1="276.33328"
       y2="303.0112" />
    <linearGradient
       gradientTransform="matrix(0.627922,0,0,1.592555,697.2996,-279.6373)"
       gradientUnits="userSpaceOnUse"
       id="linearGradient6014"
       inkscape:collect="always"
       x1="623.29089"
       x2="713.45251"
       xlink:href="#linearGradient4220"
       y1="233.4352"
       y2="233.4352" />
    <linearGradient
       gradientTransform="matrix(1.538213,0,0,0.939371,587.2253,-406.9242)"
       gradientUnits="userSpaceOnUse"
       id="linearGradient6018"
       inkscape:collect="always"
       spreadMethod="pad"
       x1="348.62054"
       x2="287.36374"
       xlink:href="#linearGradient3432"
       y1="618.14343"
       y2="558.94849" />
    <linearGradient
       gradientTransform="matrix(1.235368,0,0,0.809475,696.6778,-290.8301)"
       gradientUnits="userSpaceOnUse"
       id="linearGradient6021"
       inkscape:collect="always"
       x1="258.02023"
       x2="417.65616"
       xlink:href="#linearGradient2879"
       y1="641.9787"
       y2="641.9787" />
    <linearGradient
       gradientTransform="matrix(1.221679,0,0,0.818545,233.1566,-530.6816)"
       gradientUnits="userSpaceOnUse"
       id="linearGradient6043"
       inkscape:collect="always"
       x1="91.493225"
       x2="544.29858"
       xlink:href="#linearGradient5193"
       y1="670.74152"
       y2="670.74152" />
    <linearGradient
       gradientTransform="matrix(1.266144,0,0,0.789799,228.5092,-529.5197)"
       gradientUnits="userSpaceOnUse"
       id="linearGradient6045"
       inkscape:collect="always"
       x1="180.17577"
       x2="497.03568"
       xlink:href="#linearGradient2879"
       y1="714.59155"
       y2="714.59155" />
    <linearGradient
       gradientTransform="matrix(1.221679,0,0,0.818545,12.99564,40.96725)"
       gradientUnits="userSpaceOnUse"
       id="linearGradient6811"
       inkscape:collect="always"
       x1="91.493225"
       x2="544.29858"
       xlink:href="#linearGradient2879"
       y1="670.74152"
       y2="670.74152" />
    <linearGradient
       gradientTransform="scale(1.405347,0.711568)"
       gradientUnits="userSpaceOnUse"
       id="linearGradient6827"
       inkscape:collect="always"
       x1="78.335274"
       x2="170.70074"
       xlink:href="#linearGradient6829"
       y1="700.75488"
       y2="700.75488" />
    <linearGradient
       gradientTransform="scale(1.232321,0.811477)"
       gradientUnits="userSpaceOnUse"
       id="linearGradient6847"
       inkscape:collect="always"
       x1="90.844292"
       x2="126.78159"
       xlink:href="#linearGradient2099"
       y1="554.46985"
       y2="587.58911" />
    <linearGradient
       gradientTransform="matrix(-1.231339,-0.04915919,0.03237086,-0.810832,0,0)"
       gradientUnits="userSpaceOnUse"
       id="linearGradient6851"
       inkscape:collect="always"
       x1="-191.1823"
       x2="-151.97046"
       xlink:href="#linearGradient6853"
       y1="-622.90002"
       y2="-584.31555" />
    <radialGradient
       cx="117.69099"
       cy="700.75494"
       fx="117.69099"
       fy="700.75494"
       gradientTransform="scale(1.405347,0.711568)"
       gradientUnits="userSpaceOnUse"
       id="radialGradient6877"
       inkscape:collect="always"
       r="53.679382"
       xlink:href="#linearGradient6853" />
    <linearGradient
       gradientTransform="scale(1.405347,0.711568)"
       gradientUnits="userSpaceOnUse"
       id="linearGradient6895"
       inkscape:collect="always"
       x1="78.335274"
       x2="170.70074"
       xlink:href="#linearGradient6829"
       y1="700.75488"
       y2="700.75488" />
    <radialGradient
       cx="117.69099"
       cy="700.75494"
       fx="117.69099"
       fy="700.75494"
       gradientTransform="scale(1.405347,0.711568)"
       gradientUnits="userSpaceOnUse"
       id="radialGradient6897"
       inkscape:collect="always"
       r="53.679382"
       xlink:href="#linearGradient6853" />
    <linearGradient
       gradientTransform="scale(1.495882,0.668502)"
       gradientUnits="userSpaceOnUse"
       id="linearGradient6909"
       inkscape:collect="always"
       x1="54.351574"
       x2="457.27792"
       xlink:href="#linearGradient2199"
       y1="1060.5442"
       y2="1060.5442" />
    <linearGradient
       gradientTransform="matrix(1.235368,0,0,0.809475,696.6778,-290.8301)"
       gradientUnits="userSpaceOnUse"
       id="linearGradient6911"
       inkscape:collect="always"
       x1="258.02023"
       x2="417.65616"
       xlink:href="#linearGradient2879"
       y1="641.9787"
       y2="641.9787" />
    <linearGradient
       gradientTransform="matrix(1.538213,0,0,0.939371,587.2253,-406.9242)"
       gradientUnits="userSpaceOnUse"
       id="linearGradient6913"
       inkscape:collect="always"
       spreadMethod="pad"
       x1="348.62054"
       x2="287.36374"
       xlink:href="#linearGradient3432"
       y1="618.14343"
       y2="558.94849" />
    <linearGradient
       gradientTransform="matrix(1.318162,0,0,0.758632,696.6778,-287.5439)"
       gradientUnits="userSpaceOnUse"
       id="linearGradient6915"
       inkscape:collect="always"
       spreadMethod="pad"
       x1="348.62054"
       x2="287.36374"
       xlink:href="#linearGradient3432"
       y1="618.14343"
       y2="558.94849" />
    <linearGradient
       gradientTransform="matrix(0.627922,0,0,1.592555,697.2996,-279.6373)"
       gradientUnits="userSpaceOnUse"
       id="linearGradient6917"
       inkscape:collect="always"
       x1="623.29089"
       x2="713.45251"
       xlink:href="#linearGradient4220"
       y1="233.4352"
       y2="233.4352" />
    <linearGradient
       gradientTransform="matrix(0.868609,0,0,1.151265,696.6778,-290.8301)"
       gradientUnits="userSpaceOnUse"
       id="linearGradient6919"
       inkscape:collect="always"
       x1="486.41455"
       x2="486.41476"
       xlink:href="#linearGradient2099"
       y1="276.33328"
       y2="303.0112" />
    <radialGradient
       cx="392.85229"
       cy="237.97229"
       fx="394.96936"
       fy="236.84778"
       gradientTransform="scale(1.025978,0.974679)"
       gradientUnits="userSpaceOnUse"
       id="radialGradient6921"
       inkscape:collect="always"
       r="100.0869"
       spreadMethod="reflect"
       xlink:href="#linearGradient4244" />
    <linearGradient
       gradientTransform="matrix(1.221679,0,0,0.818545,233.1566,-530.6816)"
       gradientUnits="userSpaceOnUse"
       id="linearGradient6927"
       inkscape:collect="always"
       x1="91.493225"
       x2="544.29858"
       xlink:href="#linearGradient5193"
       y1="670.74152"
       y2="670.74152" />
    <linearGradient
       gradientTransform="matrix(1.266144,0,0,0.789799,228.5092,-529.5197)"
       gradientUnits="userSpaceOnUse"
       id="linearGradient6929"
       inkscape:collect="always"
       x1="180.17577"
       x2="497.03568"
       xlink:href="#linearGradient2879"
       y1="714.59155"
       y2="714.59155" />
    <linearGradient
       gradientTransform="matrix(1.266144,0,0,0.789799,7.1632,12.8533)"
       gradientUnits="userSpaceOnUse"
       id="linearGradient6933"
       inkscape:collect="always"
       x1="180.17577"
       x2="497.03568"
       xlink:href="#linearGradient2879"
       y1="714.59155"
       y2="714.59155" />
    <linearGradient
       gradientTransform="matrix(1.221679,0,0,0.818545,11.8106,11.6914)"
       gradientUnits="userSpaceOnUse"
       id="linearGradient6936"
       inkscape:collect="always"
       x1="91.493225"
       x2="544.29858"
       xlink:href="#linearGradient5193"
       y1="670.74152"
       y2="670.74152" />
    <linearGradient
       gradientTransform="scale(1.405347,0.711568)"
       gradientUnits="userSpaceOnUse"
       id="linearGradient6950"
       inkscape:collect="always"
       x1="78.335274"
       x2="170.70074"
       xlink:href="#linearGradient6829"
       y1="700.75488"
       y2="700.75488" />
    <radialGradient
       cx="117.69099"
       cy="700.75494"
       fx="117.69099"
       fy="700.75494"
       gradientTransform="scale(1.405347,0.711568)"
       gradientUnits="userSpaceOnUse"
       id="radialGradient6952"
       inkscape:collect="always"
       r="53.679382"
       xlink:href="#linearGradient6853" />
    <linearGradient
       gradientTransform="matrix(4.137672,0,0,1.332333,-408.8166,-1281.662)"
       gradientUnits="userSpaceOnUse"
       id="linearGradient6962"
       inkscape:collect="always"
       x1="193.76605"
       x2="193.76602"
       xlink:href="#linearGradient6956"
       y1="1506.593"
       y2="1469.0514" />
    <linearGradient
       gradientTransform="matrix(3.086442,0,0,0.946882,-208.6166,-617.3344)"
       gradientUnits="userSpaceOnUse"
       id="linearGradient6966"
       inkscape:collect="always"
       x1="203.83662"
       x2="203.83662"
       xlink:href="#linearGradient6956"
       y1="1353.5597"
       y2="1312.7539" />
    <linearGradient
       gradientTransform="matrix(0.868609,0,0,1.151265,9.1706,36.916)"
       gradientUnits="userSpaceOnUse"
       id="linearGradient6969"
       inkscape:collect="always"
       x1="486.41455"
       x2="486.41476"
       xlink:href="#linearGradient2099"
       y1="276.33328"
       y2="303.0112" />
    <linearGradient
       gradientTransform="matrix(0.627922,0,0,1.592555,9.7924,48.1088)"
       gradientUnits="userSpaceOnUse"
       id="linearGradient6972"
       inkscape:collect="always"
       x1="623.29089"
       x2="713.45251"
       xlink:href="#linearGradient4220"
       y1="233.4352"
       y2="233.4352" />
    <linearGradient
       gradientTransform="matrix(1.318162,0,0,0.758632,9.1706,40.2022)"
       gradientUnits="userSpaceOnUse"
       id="linearGradient6978"
       inkscape:collect="always"
       spreadMethod="pad"
       x1="348.62054"
       x2="287.36374"
       xlink:href="#linearGradient3432"
       y1="618.14343"
       y2="558.94849" />
    <linearGradient
       gradientTransform="matrix(1.538213,0,0,0.939371,-100.2819,-79.1781)"
       gradientUnits="userSpaceOnUse"
       id="linearGradient6982"
       inkscape:collect="always"
       spreadMethod="pad"
       x1="348.62054"
       x2="287.36374"
       xlink:href="#linearGradient3432"
       y1="618.14343"
       y2="558.94849" />
    <linearGradient
       gradientTransform="matrix(1.235368,0,0,0.809475,9.1706,36.916)"
       gradientUnits="userSpaceOnUse"
       id="linearGradient6985"
       inkscape:collect="always"
       x1="258.02023"
       x2="417.65616"
       xlink:href="#linearGradient2879"
       y1="641.9787"
       y2="641.9787" />
    <linearGradient
       gradientTransform="matrix(1.221679,0,0,0.818545,9.311083,40.45432)"
       gradientUnits="userSpaceOnUse"
       id="linearGradient6998"
       inkscape:collect="always"
       x1="91.493225"
       x2="544.29858"
       xlink:href="#linearGradient7019"
       y1="670.74152"
       y2="670.74152" />
    <linearGradient
       gradientTransform="scale(1.405347,0.711568)"
       gradientUnits="userSpaceOnUse"
       id="linearGradient7027"
       inkscape:collect="always"
       x1="78.335274"
       x2="170.70074"
       xlink:href="#linearGradient6829"
       y1="700.75488"
       y2="700.75488" />
    <radialGradient
       cx="117.69099"
       cy="700.75494"
       fx="117.69099"
       fy="700.75494"
       gradientTransform="scale(1.405347,0.711568)"
       gradientUnits="userSpaceOnUse"
       id="radialGradient7029"
       inkscape:collect="always"
       r="53.679382"
       xlink:href="#linearGradient6853" />
    <radialGradient
       cx="117.69099"
       cy="700.75494"
       fx="117.69099"
       fy="700.75494"
       gradientTransform="scale(1.405347,0.711568)"
       gradientUnits="userSpaceOnUse"
       id="radialGradient7215"
       inkscape:collect="always"
       r="53.679382"
       xlink:href="#linearGradient6853" />
    <linearGradient
       gradientTransform="scale(1.405347,0.711568)"
       gradientUnits="userSpaceOnUse"
       id="linearGradient7217"
       inkscape:collect="always"
       x1="78.335274"
       x2="170.70074"
       xlink:href="#linearGradient6829"
       y1="700.75488"
       y2="700.75488" />
  </defs>
  <sodipodi:namedview
     bordercolor="#666666"
     borderopacity="1.0"
     id="base"
     inkscape:current-layer="layer1"
     inkscape:cx="-477.77123"
     inkscape:cy="600.53965"
     inkscape:document-units="px"
     inkscape:pageopacity="0.0"
     inkscape:pageshadow="2"
     inkscape:window-height="694"
     inkscape:window-width="1022"
     inkscape:window-x="0"
     inkscape:window-y="26"
     inkscape:zoom="0.1767767"
     pagecolor="#ffffff"
     showborder="false"
     showgrid="false"
     fit-margin-top="0"
     fit-margin-left="0"
     fit-margin-right="0"
     fit-margin-bottom="0"
     inkscape:window-maximized="0" />
  <g
     id="layer1"
     inkscape:groupmode="layer"
     inkscape:label="Layer 1"
     transform="translate(-45.24583,-225.687)">
    <path
       d="m 93.910456,555.16132 c 5.781584,13.73126 -5.022921,50.24532 9.667144,61.97304 98.87574,78.93681 242.02037,229.57991 282.17431,226.00676 36.37275,-3.23668 276.90194,-121.38556 285.35493,-136.67168 10.59281,-19.15571 7.25599,-46.42677 7.58832,-79.5601 C 648.19419,625.72767 497.57756,737.98856 404.34952,783.51853 304.6172,714.50087 204.88488,645.48322 105.15256,576.46556 c -7.949679,-0.7227 -3.29242,-20.58154 -11.242104,-21.30424 z"
       id="path6901"
       sodipodi:nodetypes="cssscccc"
       style="fill:url(#linearGradient6909);fill-opacity:1;fill-rule:evenodd;stroke:none"
       inkscape:connector-curvature="0" />
    <path
       d="m 237.61136,430.32817 c 0.56449,-4.92645 -20.28334,-19.25963 -32.20785,-19.25963 -11.92452,0 -23.88177,8.01988 -46.64676,8.01988 -22.76498,0 -87.587667,-29.21946 -94.091947,-33.55565 -6.50429,-4.33618 -11.66494,-0.5298 -9.51028,10.34547 -5.42024,4.33618 -10.09547,-3.57097 -9.90295,5.05132 9.31616,11.29733 91.837797,37.72483 105.808647,38.92607 27.23525,2.34174 41.46972,-9.9001 52.92908,-10.59491 9.10656,-0.55216 24.12395,14.67055 28.77486,13.02505 12.34938,-4.36924 5.94785,-13.27838 4.8472,-11.9576 z"
       id="path3169"
       sodipodi:nodetypes="csscccsssc"
       style="fill:url(#linearGradient3949);fill-opacity:1;fill-rule:evenodd;stroke:none"
       inkscape:connector-curvature="0" />
    <path
       d="m 110.44609,589.25471 c 11.38141,9.47424 216.40001,182.07373 236.82798,189.51924 23.99136,13.97803 40.78526,23.27351 79.05393,4.81191 82.94343,-40.15726 213.5099,-107.22141 232.95087,-116.32783 26.39776,-13.58997 18.75924,-66.81998 13.40573,-80.40995 -9.70826,-12.31796 -181.34121,-127.897 -255.2223,-191.17574 -57.2128,23.21737 -112.37715,40.22459 -169.58995,63.44196 -45.04944,25.94883 -126.54624,27.87824 -145.98987,40.37172 -13.87459,13.83905 -15.45839,69.71947 8.56361,89.76869 z"
       id="path5211"
       sodipodi:nodetypes="ccccccccc"
       style="fill:url(#linearGradient6998);fill-opacity:1;fill-rule:evenodd;stroke:none"
       inkscape:connector-curvature="0" />
    <path
       d="m 96.221637,537.98137 c 1.271994,9.32549 -3.0754,29.00757 0,35.55345 3.496585,7.44237 8.191153,14.21122 14.627963,18.06814 4.58717,2.74863 12.81773,4.05518 18.44397,1.74854 10.48573,-4.29893 19.50395,-17.09674 29.25593,-23.31374 -9.32798,-2.33137 -18.65596,0 -27.98394,-2.33137 -23.74396,-4.66274 -22.04796,-19.23383 -34.343923,-29.72502 z"
       id="path6899"
       sodipodi:nodetypes="csssccc"
       style="opacity:0.13142856;fill:#000000;fill-opacity:1;fill-rule:evenodd;stroke:none"
       inkscape:connector-curvature="0" />
    <rect
       height="26.310669"
       id="rect2363"
       rx="4.2870083"
       ry="9.8240871"
       style="fill:url(#linearGradient3137);fill-opacity:1;fill-rule:nonzero;stroke:none"
       transform="matrix(0.710932,0.703261,-0.853886,0.52046,0,0)"
       width="60.227856"
       x="497.03232"
       y="137.80322" />
    <path
       d="m 142.20086,551.99837 c 11.38141,9.47424 201.30053,185.59184 236.82798,189.51924 22.81865,2.03353 16.8407,1.98668 32.81176,-0.8504 82.94343,-40.15726 228.36506,-110.33036 247.80603,-119.43678 26.39776,-13.58997 15.78453,-25.0186 10.43102,-38.60857 -73.88106,-63.27872 -183.78448,-133.55931 -257.66557,-196.83805 -57.2128,23.21737 -99.10578,28.50228 -156.31858,51.71965 -45.04944,25.94883 -115.28095,61.30606 -134.72458,73.79954 -13.8746,13.83905 -3.19007,20.64615 20.83194,40.69537 z"
       id="path4425"
       sodipodi:nodetypes="ccccccccc"
       style="fill:url(#linearGradient6936);fill-opacity:1;fill-rule:evenodd;stroke:none"
       inkscape:connector-curvature="0" />
    <path
       d="m 239.89376,498.6348 c 0,18.14927 -29.05796,32.86216 -64.90276,32.86216 -35.84481,0 -64.90277,-14.71289 -64.90277,-32.86216 0,-18.14927 29.05796,-32.86216 64.90277,-32.86216 35.8448,0 64.90276,14.71289 64.90276,32.86216 z"
       id="path6819"
       sodipodi:cx="174.991"
       sodipodi:cy="498.6348"
       sodipodi:rx="64.902763"
       sodipodi:ry="32.86216"
       sodipodi:type="arc"
       style="fill:#840000;fill-opacity:1;fill-rule:nonzero;stroke:none"
       transform="matrix(1.167892,0,0,1.477298,-27.46962,-217.2028)" />
    <path
       d="m 239.89376,498.6348 c 0,18.14927 -29.05796,32.86216 -64.90276,32.86216 -35.84481,0 -64.90277,-14.71289 -64.90277,-32.86216 0,-18.14927 29.05796,-32.86216 64.90277,-32.86216 35.8448,0 64.90276,14.71289 64.90276,32.86216 z"
       id="path6817"
       sodipodi:cx="174.991"
       sodipodi:cy="498.6348"
       sodipodi:rx="64.902763"
       sodipodi:ry="32.86216"
       sodipodi:type="arc"
       style="fill:url(#linearGradient7027);fill-opacity:1;fill-rule:nonzero;stroke:none"
       transform="matrix(1.158941,0,0,1.406587,-29.15345,-184.33)" />
    <path
       d="m 239.89376,498.6348 c 0,18.14927 -29.05796,32.86216 -64.90276,32.86216 -35.84481,0 -64.90277,-14.71289 -64.90277,-32.86216 0,-18.14927 29.05796,-32.86216 64.90277,-32.86216 35.8448,0 64.90276,14.71289 64.90276,32.86216 z"
       id="path6815"
       sodipodi:cx="174.991"
       sodipodi:cy="498.6348"
       sodipodi:rx="64.902763"
       sodipodi:ry="32.86216"
       sodipodi:type="arc"
       style="fill:#c60000;fill-opacity:1;fill-rule:nonzero;stroke:none"
       transform="matrix(0.917272,0,0,1.088388,13.71744,-29.15091)" />
    <path
       d="m 239.89376,498.6348 c 0,18.14927 -29.05796,32.86216 -64.90276,32.86216 -35.84481,0 -64.90277,-14.71289 -64.90277,-32.86216 0,-18.14927 29.05796,-32.86216 64.90277,-32.86216 35.8448,0 64.90276,14.71289 64.90276,32.86216 z"
       id="path6813"
       sodipodi:cx="174.991"
       sodipodi:cy="498.6348"
       sodipodi:rx="64.902763"
       sodipodi:ry="32.86216"
       sodipodi:type="arc"
       style="opacity:0.49714284;fill:url(#radialGradient7029);fill-opacity:1;fill-rule:nonzero;stroke:none"
       transform="matrix(0.908816,0,0,1,15.37706,9.72357)" />
    <path
       d="m 282.17542,671.0947 c 19.92678,24.27015 86.51504,72.63273 109.41554,73.02365 20.15611,0.34407 110.65469,-45.20592 127.3096,-58.50997 -48.55188,4.99411 -189.4391,4.12825 -236.72514,-14.51368 z"
       id="path6954"
       sodipodi:nodetypes="cscc"
       style="opacity:0.30285716;fill:url(#linearGradient6962);fill-opacity:1;fill-rule:evenodd;stroke:none"
       inkscape:connector-curvature="0" />
    <path
       d="m 249.2456,579.76392 c 8.53162,6.84858 130.38036,122.66305 145.69338,119.36241 14.98284,6.24522 23.47157,-3.64646 36.15108,-6.37946 62.17528,-29.02825 171.18489,-79.75386 185.75805,-86.33657 19.78804,-9.8237 14.89529,-8.9094 17.48827,-21.56425 7.35801,-64.33156 -112.29966,-86.99472 -167.68172,-132.73664 -42.88733,16.783 -84.23911,29.07691 -127.12643,45.85991 -103.60466,28.19466 -99.91975,19.86555 -112.23777,34.92404 -9.45683,19.44093 3.94799,32.37769 21.95514,46.87056 z"
       id="path3657"
       sodipodi:nodetypes="ccccccccc"
       style="fill:url(#linearGradient6933);fill-opacity:1;fill-rule:evenodd;stroke:none"
       inkscape:connector-curvature="0" />
    <path
       d="m 239.89376,498.6348 c 0,18.14927 -29.05796,32.86216 -64.90276,32.86216 -35.84481,0 -64.90277,-14.71289 -64.90277,-32.86216 0,-18.14927 29.05796,-32.86216 64.90277,-32.86216 35.8448,0 64.90276,14.71289 64.90276,32.86216 z"
       id="path6940"
       sodipodi:cx="174.991"
       sodipodi:cy="498.6348"
       sodipodi:rx="64.902763"
       sodipodi:ry="32.86216"
       sodipodi:type="arc"
       style="fill:#920000;fill-opacity:1;fill-rule:nonzero;stroke:none"
       transform="matrix(1.167892,0,0,1.477298,166.9718,-306.6179)" />
    <path
       d="m 239.89376,498.6348 c 0,18.14927 -29.05796,32.86216 -64.90276,32.86216 -35.84481,0 -64.90277,-14.71289 -64.90277,-32.86216 0,-18.14927 29.05796,-32.86216 64.90277,-32.86216 35.8448,0 64.90276,14.71289 64.90276,32.86216 z"
       id="path6944"
       sodipodi:cx="174.991"
       sodipodi:cy="498.6348"
       sodipodi:rx="64.902763"
       sodipodi:ry="32.86216"
       sodipodi:type="arc"
       style="fill:url(#linearGradient7217);fill-opacity:1;fill-rule:nonzero;stroke:none"
       transform="matrix(1.158941,0,0,1.406587,167.9572,-275.8616)" />
    <path
       d="m 239.89376,498.6348 c 0,18.14927 -29.05796,32.86216 -64.90276,32.86216 -35.84481,0 -64.90277,-14.71289 -64.90277,-32.86216 0,-18.14927 29.05796,-32.86216 64.90277,-32.86216 35.8448,0 64.90276,14.71289 64.90276,32.86216 z"
       id="path6946"
       sodipodi:cx="174.991"
       sodipodi:cy="498.6348"
       sodipodi:rx="64.902763"
       sodipodi:ry="32.86216"
       sodipodi:type="arc"
       style="fill:#c60000;fill-opacity:1;fill-rule:nonzero;stroke:none"
       transform="matrix(0.917272,0,0,1.088388,204.2221,-126.3448)" />
    <path
       d="m 239.89376,498.6348 c 0,18.14927 -29.05796,32.86216 -64.90276,32.86216 -35.84481,0 -64.90277,-14.71289 -64.90277,-32.86216 0,-18.14927 29.05796,-32.86216 64.90277,-32.86216 35.8448,0 64.90276,14.71289 64.90276,32.86216 z"
       id="path6948"
       sodipodi:cx="174.991"
       sodipodi:cy="498.6348"
       sodipodi:rx="64.902763"
       sodipodi:ry="32.86216"
       sodipodi:type="arc"
       style="opacity:0.49714284;fill:url(#radialGradient7215);fill-opacity:1;fill-rule:nonzero;stroke:none"
       transform="matrix(0.908816,0,0,0.956924,198.3319,-64.57541)" />
    <path
       d="m 242.41237,545.57229 c 8.53162,6.84858 133.21151,119.8319 148.52453,116.53126 14.98284,6.24522 22.52786,4.847 35.20737,2.114 62.17528,-29.02825 171.18489,-79.75386 185.75805,-86.33657 19.78804,-9.8237 19.61387,-17.40286 15.60083,-27.22656 C 572.12111,504.9125 515.20349,463.6597 459.82143,417.91778 c -42.88733,16.783 -84.23911,29.07691 -127.12643,45.85991 -33.76955,18.75748 -82.12685,49.4859 -96.702,58.51699 -10.40055,10.00375 -11.58778,8.78474 6.41937,23.27761 z"
       id="path2895"
       sodipodi:nodetypes="ccccccccc"
       style="fill:#434343;fill-opacity:1;fill-rule:evenodd;stroke:none"
       inkscape:connector-curvature="0" />
    <path
       d="m 332.3793,572.54098 c -0.9252,-7.96704 0.6201,-78.15439 0.6201,-78.15439 0,0 -3.1995,8.22986 7.0755,1.25562 7.4031,-8.00585 178.9389,-3.51006 182.0392,-2.75858 4.331,3.21298 1.8601,62.37321 1.2401,67.63359 -0.6201,5.2604 -24.4123,58.38088 -97.3476,60.11877 -73.3456,1.73789 -93.6273,-48.09501 -93.6273,-48.09501 z"
       id="path2119"
       sodipodi:nodetypes="ccccczc"
       style="fill:url(#linearGradient6985);fill-opacity:1;fill-rule:evenodd;stroke:none"
       inkscape:connector-curvature="0" />
    <path
       d="m 332.5455,495.06774 c 5.1166,29.65513 21.5629,34.36288 31.5303,40.78991 20.0182,12.90774 93.4557,21.54379 128.5136,1.81507 25.8565,-14.55064 50.3455,-49.29791 2.1428,-90.40083 -16.9602,-14.46216 -76.1832,-26.16761 -123.7336,-9.25967 -26.066,9.26857 -41.7393,38.00948 -38.4531,57.05552 z"
       id="path4282"
       sodipodi:nodetypes="csssss"
       style="fill:url(#linearGradient6982);fill-opacity:1;fill-rule:nonzero;stroke:none"
       inkscape:connector-curvature="0" />
    <path
       d="m 338.5938,497.46549 c 5.4768,34.06867 53.1135,39.94948 62.3255,42.9083 16.8115,5.39969 59.9682,3.04283 74.2277,-2.70349 20.66,-8.32561 61.1684,-26.44805 34.6035,-74.37396 -12.4869,-22.52768 -75.8523,-34.18016 -112.0058,-31.55813 -56.9902,6.86992 -63.2917,39.96873 -59.1509,65.72728 z"
       id="path4286"
       sodipodi:nodetypes="cssscs"
       style="fill:#434343;fill-opacity:1;fill-rule:nonzero;stroke:none"
       inkscape:connector-curvature="0" />
    <path
       d="m 380.7824,491.01103 c 9.74323,23.2135 26.22877,21.59416 32.86594,23.36407 5.24061,1.3975 24.63086,4.4667 39.59556,-1.9063 14.3975,-6.13151 33.7068,-18.78385 20.8205,-42.33668 -4.8486,-8.86186 -40.9746,-13.67765 -61.033,-12.24907 -18.4174,5.53106 -37.76047,19.99676 -32.249,33.12798 z"
       id="path2632"
       sodipodi:nodetypes="cssscs"
       style="fill:url(#linearGradient6978);fill-opacity:1;fill-rule:nonzero;stroke:none"
       inkscape:connector-curvature="0" />
    <path
       d="m 385.67178,482.78566 c 7.43236,20.61052 35.02466,19.83474 28.82997,19.39227 -5.75454,-0.41104 21.73362,5.28512 35.16394,-1.37112 12.32899,-6.11041 29.76798,-15.77548 18.38749,-35.55617 -4.28197,-7.44256 -36.18638,-11.48707 -53.90084,-10.2873 -16.26522,4.64523 -32.56028,16.50889 -28.48056,27.82232 z"
       id="path3442"
       sodipodi:nodetypes="cssscs"
       style="fill:#323232;fill-opacity:1;fill-rule:nonzero;stroke:none"
       inkscape:connector-curvature="0" />
    <path
       d="m 442.52422,446.55719 c 0,8.83371 -13.42713,15.99485 -29.99035,15.99485 -16.56321,0 -29.99034,-7.16114 -29.99034,-15.99485 0,-8.83371 13.42713,-15.99485 29.99034,-15.99485 16.56322,0 29.99035,7.16114 29.99035,15.99485 z"
       id="path2115"
       sodipodi:cx="412.53387"
       sodipodi:cy="446.55719"
       sodipodi:rx="29.990347"
       sodipodi:ry="15.994851"
       sodipodi:type="arc"
       style="opacity:0.43428566;fill:#000000;fill-opacity:1;fill-rule:nonzero;stroke:none"
       transform="matrix(1.044444,0,0,1.104167,-2.80991,-12.95567)" />
    <rect
       height="143.5873"
       id="rect3452"
       rx="22.371115"
       ry="20.51247"
       style="fill:url(#linearGradient6972);fill-opacity:1;fill-rule:nonzero;stroke:none"
       width="56.614422"
       x="401.17041"
       y="348.07355" />
    <rect
       height="74.175323"
       id="rect1338"
       rx="22.371115"
       ry="10.794123"
       style="fill:url(#linearGradient6969);fill-opacity:1;fill-rule:nonzero;stroke:none"
       width="55.963966"
       x="401.97986"
       y="315.64346" />
    <path
       d="m 502.96577,259.35007 c 0,38.74424 -33.06148,70.15265 -73.84489,70.15265 -40.78341,0 -73.84489,-31.40841 -73.84489,-70.15265 0,-38.74424 33.06148,-70.15265 73.84489,-70.15265 40.78341,0 73.84489,31.40841 73.84489,70.15265 z"
       id="path4242"
       sodipodi:cx="429.12088"
       sodipodi:cy="259.35007"
       sodipodi:rx="73.844894"
       sodipodi:ry="70.152649"
       sodipodi:type="arc"
       style="fill:url(#radialGradient6921);fill-opacity:1;fill-rule:nonzero;stroke:none"
       transform="translate(3.733531,36.48958)" />
    <path
       d="m 332.11174,618.16837 c 12.40344,18.18643 55.14293,49.14472 74.59176,47.66098 37.11998,-2.83185 60.40331,-22.6568 99.57252,-41.27154 -36.21665,3.54929 -138.89187,6.85928 -174.16428,-6.38944 z"
       id="path6964"
       sodipodi:nodetypes="cscc"
       style="opacity:0.23428566;fill:url(#linearGradient6966);fill-opacity:1;fill-rule:evenodd;stroke:none"
       inkscape:connector-curvature="0" />
  </g>
</svg>
